Mega Mushroom                       $5.99
Seller: mario
-----------------------------------------
Fire Flower                         $3.99
Seller: mario
-----------------------------------------
Warp Star                           $9.99
Seller: kirby
-----------------------------------------
Maximum Tomato                      $6.99
Seller: kirby
